%YAML 1.1
%TAG !u! tag:unity3d.com,2011:
--- !u!1045 &1
EditorBuildSettings:
  m_ObjectHideFlags: 0
  serializedVersion: 2
  m_Scenes:
  - enabled: 1
    path: Assets/Scenes/MainMenu.unity
    guid: e467decfc935c854e95134e4605b373c
  - enabled: 1
    path: Assets/Scenes/LevelOneStart.unity
    guid: 4855a4592db62a848bc498fcd5f622d2
  - enabled: 1
    path: Assets/Scenes/LevelOne.unity
    guid: 2cda990e2423bbf4892e6590ba056729
  - enabled: 1
    path: Assets/Scenes/LevelTwoStart.unity
    guid: 6be9040da4abc754f9f8177c3ce2ec9f
  - enabled: 1
    path: Assets/Scenes/LevelTwo.unity
    guid: 5099c888d2ffc4b46bbc17a5c9fd2627
  - enabled: 1
    path: Assets/Scenes/LevelThreeStart.unity
    guid: 34f2cf65cb570cf4884fe61394f8b5f7
  - enabled: 1
    path: Assets/Scenes/LevelThree.unity
    guid: 58bdc6ebf6faaa148b53fa5685674f09
  - enabled: 1
    path: Assets/Scenes/HowToPlay.unity
    guid: d13a1f8e9e0ce63479ba92462e354c91
  - enabled: 1
    path: Assets/Scenes/TryAgain.unity
    guid: 2d9bc1147ba2ca2468ff4184b530836d
  m_configObjects: {}
